{
  "template": {
    "tag": "cells-template-paper-drawer-panel",
    "properties": {
      "disableEdgeSwipe": true,
      "headerFixed": true
    }
  },
  "components": [
    {
      "zone": "app__header",
      "tag": "cells-component-app-header",
      "properties": {
        "text": "Posición global"
      }
    },
    {
      "zone": "app__main",
      "familyPath": "../elements/account-dm",
      "tag": "account-dm",
      "properties": {
        "cellsConnections": {
          "in": {
            "ch_doPostLogin_success" : {
              "bind": "doGetAccountUserId"
            },
            "ch_doNewAccount" : {
              "bind": "doPostNewAccount"
            },
            "ch_doPostNewAccount_success": {
              "bind": "doGetAccountUserId"
            },
            "ch_doLogout" : {
              "bind": "doPostLogout"
            },
            "ch_doGoAccounts": {
              "bind": "doGetAccountUserId"
            },
            "ch_doDeleteAccount_success": {
              "bind": "doGetAccountUserId"
            },
            "ch_doCancelModify": {
              "bind": "doGetAccountUserId"
            },
            "ch_doUpdateUser_success": {
              "bind": "doGetAccountUserId"
            }
          },
          "out": {
            "ch_doGetAccountUserId_start" : {
              "bind": "doGetAccountUserId-start"
            },
            "ch_doGetAccountUserId_success" : {
              "bind": "doGetAccountUserId-success"
            },
            "ch_doGetAccountUserId_error" : {
              "bind": "doGetAccountUserId-error"
            },
            "ch_doPostNewAccount_success" : {
              "bind": "doPostNewAccount-success"
            },
            "ch_doPostNewAccount_error" : {
              "bind": "doPostNewAccount-error"
            },
            "ch_doPostNewAccount_start" : {
              "bind": "doPostNewAccount-start"
            },
            "ch_doPostLogout_error" : {
              "bind": "doPostLogout-error"
            },
            "ch_doPostLogout_success" : {
              "bind": "doPostLogout-success",
              "link":{
                "page": "login"
              }
            }
          }
        }
      }
    },
    {
      "zone": "app__main",
      "familyPath": "../elements/account-vw",
      "tag": "account-vw",
      "properties": {
        "cellsConnections": {
          "in": {
            "ch_doGetAccountUserId_success": {
              "bind": "doAccountVisualizeSuccess"
            },
            "ch_doGetAccountUserId_error" : {
              "bind": "doAccountVisualizeError"
            },
            "ch_doPostNewAccount_error" : {
              "bind": "doAccountVisualizeError"
            },
            "ch_doPostLogout_error" : {
              "bind": "doAccountVisualizeError"
            }
          },
          "out": {
            "ch_doGetTransactionIban" : {
              "bind": "product-item-tap",
              "link":{
                  "page": "movements"
                }
            },
            "ch_doNewAccount" : {
              "bind": "doNewAccount"
            }            ,
            "ch_doLogout" : {
              "bind": "doLogout"
            },
            "ch_doStocks" : {
              "bind": "doStocks",
              "link":{
                "page": "stocks"
              }
            },
            "ch_doProfile" : {
              "bind": "doProfile",
              "link":{
                "page": "profile"
              }
            }
          }
        }
      }
    },
    {
      "zone": "app__main",
      "tag": "cells-molecule-spinner-veil",
      "properties": {
        "cellsConnections": {
          "in": {
            "ch_doGetAccountUserId_start": {
              "bind": "show"
            },
            "ch_doGetAccountUserId_success": {
              "bind": "hide"
            },
            "ch_doGetAccountUserId_error": {
              "bind": "hide"
            }
          },
          "out": {
          }
        }
      }
    }
  ]
}
